…
-   first you see a white space then
-   `\\(` : Because `(` is a meta character you have to 'escape' it by adding two backslashes in front.
-   `[A-Za-z]*` : This returns any CAPITAL or lower case letter. The `*` says look for 0 or more letters.
-   `\\)` : At last we want to return for the closing parenthesis.

This pattern: `" \\([A-Za-z]*\\)"` will return `(RVB)` but also `(regulier)`.

Our new dataset
---------------

``` r
data
```

    ## # A tibble: 61 x 7
    ##    Centrum.nr       Locatie                Straat     Nr     Plaats
    ##         <dbl>         <chr>                <fctr> <fctr>     <fctr>
    ##  1          1       Alkmaar          Robonsbosweg      1    Alkmaar
    ##  2          2        Almelo      Vriezenveenseweg   170a     Almelo
    ##  3          3        Almere           Biathlonweg     15     Almere
    ##  4          4    Amersfoort Barchman Wuytierslaan     53 Amersfoort
    ##  5          5 Amsterdam ALO           Willinklaan  1,3&5  Amsterdam
    ##  6          6        Arnhem        Eldershofseweg     51     Arnhem
    ##  7          7        Arnhem       Groningensingel   1225     Arnhem
    ##  8          8    Arnhem AMV        Frombergstraat      1     Arnhem
    ##  9          9    Arnhem AMV        Apeldoornseweg     43     Arnhem
    ## 10         10         Assen          Schepersmaat      3      Assen
    ## # ... with 51 more rows, and 2 more variables: Provincie <fctr>,
    ## #   Opvang.cap <dbl>
