…
    ## 
    ## Attaching package: 'reshape2'

    ## The following object is masked from 'package:tidyr':
    ## 
    ##     smiths

``` r
# Running authencation from google in Chrome browser.
gs_ls()
```

    ## # A tibble: 74 × 10
    ##                 sheet_title        author  perm version
    ##                       <chr>         <chr> <chr>   <chr>
    ## 1    worlds-view-of-America  thomasdebeus    rw     new
    ## 2  New tweet by @thierryba…  thomasdebeus    rw     new
    ## 3  New tweet by @fvdemocra…  thomasdebeus    rw     new
    ## 4  Access open Data reposi…  thomasdebeus    rw     new
    ## 5        Great data stories  thomasdebeus    rw     new
    ## 6  Design - Snowfallen sto… bobbie.johns…    rw     new
    ## 7      Untitled spreadsheet  thomasdebeus    rw     new
    ## 8      Untitled spreadsheet  thomasdebeus    rw     new
    ## 9  Overledenen__doodsoorza…  thomasdebeus    rw     new
    ## 10 Overledenen__doodsoo_06…  thomasdebeus    rw     new
    ## # ... with 64 more rows, and 6 more variables: updated <dttm>,
    ## #   sheet_key <chr>, ws_feed <chr>, alternate <chr>, self <chr>,
    ## #   alt_key <chr>
…
